<?xml version="1.0" encoding="UTF-8" standalone="no"?>
<svg
   xmlns:dc="http://purl.org/dc/elements/1.1/"
   xmlns:cc="http://creativecommons.org/ns#"
   xmlns:rdf="http://www.w3.org/1999/02/22-rdf-syntax-ns#"
   xmlns:svg="http://www.w3.org/2000/svg"
   xmlns="http://www.w3.org/2000/svg"
   xmlns:xlink="http://www.w3.org/1999/xlink"
   xmlns:sodipodi="http://sodipodi.sourceforge.net/DTD/sodipodi-0.dtd"
   xmlns:inkscape="http://www.inkscape.org/namespaces/inkscape"
   style="enable-background:new"
   height="512"
   viewBox="0 0 512.40002 512"
   width="512.4"
   version="1.1"
   id="svg299"
   sodipodi:docname="Logo Stefan.svg"
   inkscape:version="0.92.3 (2405546, 2018-03-11)">
  <metadata
     id="metadata303">
    <rdf:RDF>
      <cc:Work
         rdf:about="">
        <dc:format>image/svg+xml</dc:format>
        <dc:type
           rdf:resource="http://purl.org/dc/dcmitype/StillImage" />
        <dc:title />
      </cc:Work>
    </rdf:RDF>
  </metadata>
  <sodipodi:namedview
     pagecolor="#ffffff"
     bordercolor="#666666"
     borderopacity="1"
     objecttolerance="10"
     gridtolerance="10"
     guidetolerance="10"
     inkscape:pageopacity="0"
     inkscape:pageshadow="2"
     inkscape:window-width="1920"
     inkscape:window-height="986"
     id="namedview301"
     showgrid="false"
     inkscape:zoom="0.74511719"
     inkscape:cx="230.87073"
     inkscape:cy="29.692069"
     inkscape:window-x="-11"
     inkscape:window-y="-11"
     inkscape:window-maximized="1"
     inkscape:current-layer="layer1">
    <inkscape:grid
       type="xygrid"
       id="grid4767" />
  </sodipodi:namedview>
  <defs
     id="defs271">
    <linearGradient
       id="a"
       y2="494"
       gradientUnits="userSpaceOnUse"
       x2="256"
       gradientTransform="matrix(1,0,0,1.076,2.5000001e-6,-19.360001)"
       y1="18"
       x1="256">
      <stop
         style="stop-color:#eaeaea"
         offset="0"
         id="stop266" />
      <stop
         style="stop-color:#f4f4f4"
         offset="1"
         id="stop268" />
    </linearGradient>
    <linearGradient
       inkscape:collect="always"
       id="linearGradient1492">
      <stop
         style="stop-color:#ff2a2a;stop-opacity:1;"
         offset="0"
         id="stop1488" />
      <stop
         style="stop-color:#ff2a2a;stop-opacity:0;"
         offset="1"
         id="stop1490" />
    </linearGradient>
    <clipPath
       clipPathUnits="userSpaceOnUse"
       id="clipPath1468">
      <g
         transform="matrix(0.7033609,0,0,0.74967185,4.1995808,250.78843)"
         style="fill:#aea79f;fill-opacity:0.94117647"
         id="use1470"
         inkscape:label="Clip">
        <path
           sodipodi:nodetypes="ccsssssssssscccccssssssscccsscssscccssccsssccssscccsccsscssccccsssscscc"
           inkscape:connector-curvature="0"
           id="path202"
           style="fill:#aea79f;fill-opacity:0.94117647;stroke-width:1.33333337"
           d="m 419.67773,727.6582 c -279.78515,474.8945 -139.89258,237.44727 0,0 z m -1.7207,-500.49609 c -7.18045,0 -20.23045,0.93647 -29,2.08008 -73.15816,9.54032 -138.12816,40.47603 -191.71875,91.28906 -43.46475,41.21201 -78.11305,99.68238 -93.1543,157.20117 -27.719331,106.00063 -4.314215,216.24234 63.85352,300.76367 12.91453,16.01277 40.98873,43.6276 55.79297,54.87891 52.20113,39.67316 113.40053,63.9755 175.28125,69.60547 18.11935,1.6485 43.6536,1.72627 60.66601,0.18359 82.93723,-7.52076 155.78216,-42.29643 214.02539,-102.17383 36.73214,-37.76274 62.21639,-79.80707 78.69141,-129.82812 9.80632,-29.77371 14.94921,-57.11618 16.74219,-89 l 0.91992,-16.33203 h -19.41602 -19.41601 l -0.75391,9 c -3.19069,38.12131 -4.85308,48.50091 -11.66601,72.87109 C 688.39748,756.46923 594.63167,841.13932 483.0918,860.54688 386.40233,877.37051 288.57307,846.43962 219.63672,777.24805 127.48344,684.75357 105.52854,546.06393 164.59375,429.53711 c 15.07385,-29.73845 30.11924,-50.24084 55.6582,-75.85156 34.17945,-34.27549 71.635,-57.58944 116.5918,-72.57032 26.80845,-8.93334 62.67445,-15.28515 86.30859,-15.28515 h 7.85938 v -19.33399 -19.33398 z m -253.84375,17.33398 c -2.37148,0 -49.24542,47.91047 -58.91016,60.21289 -31.2054,39.72182 -54.351884,82.54418 -69.755854,129.05274 -27.1269104,81.90317 -28.3602704,169.97874 -3.53125,252.06836 7.51998,24.86255 13.252012,39.23418 25.789062,64.66601 51.936942,105.35583 145.665142,183.7407 258.464842,216.1543 28.96224,8.3225 53.24973,12.52942 90.8418,15.73242 12.35256,1.05253 58.59808,-0.52643 74.66601,-2.54883 55.27855,-6.9576 109.25674,-24.77741 155.44727,-51.32031 62.1132,-35.69276 112.44857,-84.47305 149.33594,-144.72265 11.00017,-17.96701 28.99393,-54.08096 27.58984,-55.37305 -1.50827,-1.38797 -32.6396,-14.59514 -34.30273,-14.55274 -0.77208,0.0197 -3.17835,4.06972 -5.34766,9 -10.61197,24.11827 -29.93495,55.64345 -48.40039,78.96485 -14.66055,18.51592 -47.78612,50.86289 -66.32227,64.76367 -57.37477,43.02696 -121.39118,68.15209 -191.87109,75.30469 -23.13197,2.3475 -74.12024,0.96729 -94.82812,-2.56641 C 262.84635,920.53877 172.84515,861.43758 112.16602,768.06055 102.30617,752.88758 83.401499,714.88551 77.011719,697.39453 52.512239,630.33121 47.103201,559.47328 61.119141,489.20703 76.798951,410.59937 120.23479,335.47917 180.83398,282.16992 l 9.15625,-8.05273 -12.37109,-14.81055 c -6.80389,-8.14561 -12.88154,-14.81055 -13.50586,-14.81055 z m 184.10547,73.61524 -10.03516,3.86328 c -74.93032,28.8531 -132.70542,90.97856 -155.96875,167.70898 -15.70068,51.78624 -14.63688,109.32266 2.97071,160.65625 5.76714,16.81368 18.03406,42.12354 27.21679,56.15625 42.94571,65.62785 112.59317,109.09917 188.70313,117.7793 59.16113,6.74715 122.1002,-8.12042 171.55469,-40.52344 14.71906,-9.64405 28.58841,-20.44033 27.95507,-21.76172 -0.21828,-0.45541 -5.88638,-7.23474 -12.5957,-15.0664 l -12.19922,-14.24024 -8.07031,6.40235 c -51.04697,40.48966 -119.36732,56.40518 -182.9707,42.625 -65.36943,-14.16283 -121.15762,-57.54825 -151.33985,-117.69336 -7.40163,-14.74945 -15.85695,-38.93344 -18.94336,-54.1875 -14.96645,-73.9689 8.74927,-150.63078 62.70118,-202.68555 15.3649,-14.82462 25.91199,-22.93562 42.48046,-32.66601 11.43805,-6.71736 35.9708,-17.98243 39.16211,-17.98243 2.15358,0 2.11893,-0.15531 -4.55859,-20.1914 z" />
      </g>
    </clipPath>
    <clipPath
       clipPathUnits="userSpaceOnUse"
       id="clipPath1468-6">
      <g
         style="fill:url(#linearGradient5021);fill-opacity:1"
         id="use1470-9"
         inkscape:label="Clip">
        <path
           sodipodi:nodetypes="ccsssssssssscccccssssssscccsscssscccssccsssccssscccsccsscssccccsssscscc"
           inkscape:connector-curvature="0"
           id="path5015"
           style="fill:url(#linearGradient5019);fill-opacity:1;stroke-width:1.33333337"
           d="m 419.67773,727.6582 c -279.78515,474.8945 -139.89258,237.44727 0,0 z m -1.7207,-500.49609 c -7.18045,0 -20.23045,0.93647 -29,2.08008 -73.15816,9.54032 -138.12816,40.47603 -191.71875,91.28906 -43.46475,41.21201 -78.11305,99.68238 -93.1543,157.20117 -27.719331,106.00063 -4.314215,216.24234 63.85352,300.76367 12.91453,16.01277 40.98873,43.6276 55.79297,54.87891 52.20113,39.67316 113.40053,63.9755 175.28125,69.60547 18.11935,1.6485 43.6536,1.72627 60.66601,0.18359 82.93723,-7.52076 155.78216,-42.29643 214.02539,-102.17383 36.73214,-37.76274 62.21639,-79.80707 78.69141,-129.82812 9.80632,-29.77371 14.94921,-57.11618 16.74219,-89 l 0.91992,-16.33203 h -19.41602 -19.41601 l -0.75391,9 c -3.19069,38.12131 -4.85308,48.50091 -11.66601,72.87109 C 688.39748,756.46923 594.63167,841.13932 483.0918,860.54688 386.40233,877.37051 288.57307,846.43962 219.63672,777.24805 127.48344,684.75357 105.52854,546.06393 164.59375,429.53711 c 15.07385,-29.73845 30.11924,-50.24084 55.6582,-75.85156 34.17945,-34.27549 71.635,-57.58944 116.5918,-72.57032 26.80845,-8.93334 62.67445,-15.28515 86.30859,-15.28515 h 7.85938 v -19.33399 -19.33398 z m -253.84375,17.33398 c -2.37148,0 -49.24542,47.91047 -58.91016,60.21289 -31.2054,39.72182 -54.351884,82.54418 -69.755854,129.05274 -27.1269104,81.90317 -28.3602704,169.97874 -3.53125,252.06836 7.51998,24.86255 13.252012,39.23418 25.789062,64.66601 51.936942,105.35583 145.665142,183.7407 258.464842,216.1543 28.96224,8.3225 53.24973,12.52942 90.8418,15.73242 12.35256,1.05253 58.59808,-0.52643 74.66601,-2.54883 55.27855,-6.9576 109.25674,-24.77741 155.44727,-51.32031 62.1132,-35.69276 112.44857,-84.47305 149.33594,-144.72265 11.00017,-17.96701 28.99393,-54.08096 27.58984,-55.37305 -1.50827,-1.38797 -32.6396,-14.59514 -34.30273,-14.55274 -0.77208,0.0197 -3.17835,4.06972 -5.34766,9 -10.61197,24.11827 -29.93495,55.64345 -48.40039,78.96485 -14.66055,18.51592 -47.78612,50.86289 -66.32227,64.76367 -57.37477,43.02696 -121.39118,68.15209 -191.87109,75.30469 -23.13197,2.3475 -74.12024,0.96729 -94.82812,-2.56641 C 262.84635,920.53877 172.84515,861.43758 112.16602,768.06055 102.30617,752.88758 83.401499,714.88551 77.011719,697.39453 52.512239,630.33121 47.103201,559.47328 61.119141,489.20703 76.798951,410.59937 120.23479,335.47917 180.83398,282.16992 l 9.15625,-8.05273 -12.37109,-14.81055 c -6.80389,-8.14561 -12.88154,-14.81055 -13.50586,-14.81055 z m 184.10547,73.61524 -10.03516,3.86328 c -74.93032,28.8531 -132.70542,90.97856 -155.96875,167.70898 -15.70068,51.78624 -14.63688,109.32266 2.97071,160.65625 5.76714,16.81368 18.03406,42.12354 27.21679,56.15625 42.94571,65.62785 112.59317,109.09917 188.70313,117.7793 59.16113,6.74715 122.1002,-8.12042 171.55469,-40.52344 14.71906,-9.64405 28.58841,-20.44033 27.95507,-21.76172 -0.21828,-0.45541 -5.88638,-7.23474 -12.5957,-15.0664 l -12.19922,-14.24024 -8.07031,6.40235 c -51.04697,40.48966 -119.36732,56.40518 -182.9707,42.625 -65.36943,-14.16283 -121.15762,-57.54825 -151.33985,-117.69336 -7.40163,-14.74945 -15.85695,-38.93344 -18.94336,-54.1875 -14.96645,-73.9689 8.74927,-150.63078 62.70118,-202.68555 15.3649,-14.82462 25.91199,-22.93562 42.48046,-32.66601 11.43805,-6.71736 35.9708,-17.98243 39.16211,-17.98243 2.15358,0 2.11893,-0.15531 -4.55859,-20.1914 z" />
      </g>
    </clipPath>
    <linearGradient
       inkscape:collect="always"
       xlink:href="#linearGradient1492"
       id="linearGradient5019"
       gradientUnits="userSpaceOnUse"
       x1="14.157206"
       y1="614.50037"
       x2="814.1283"
       y2="614.50037" />
    <linearGradient
       inkscape:collect="always"
       xlink:href="#linearGradient1492"
       id="linearGradient5021"
       gradientUnits="userSpaceOnUse"
       x1="14.157206"
       y1="614.50037"
       x2="814.1283"
       y2="614.50037" />
    <linearGradient
       inkscape:collect="always"
       id="linearGradient966">
      <stop
         style="stop-color:#dd4814;stop-opacity:1;"
         offset="0"
         id="stop962" />
      <stop
         style="stop-color:#dd4814;stop-opacity:0;"
         offset="1"
         id="stop964" />
    </linearGradient>
    <linearGradient
       inkscape:collect="always"
       xlink:href="#linearGradient966"
       id="linearGradient5274"
       gradientUnits="userSpaceOnUse"
       x1="77.024933"
       y1="208.32567"
       x2="423.12122"
       y2="216.57281" />
  </defs>
  <rect
     style="color:#000000;fill:url(#a);enable-background:accumulate"
     height="512"
     width="512"
     y="0"
     x="0"
     id="rect273" />
  <path
     d="m-208.3 605.6c-7.842 0-14.55 5.029-17.32 12.19-0.0612-0.00067-0.1208 0-0.1823 0-7.088 0-12.83 6.002-12.83 13.41 0 7.404 5.746 13.41 12.83 13.41h17.5 16.33c5.155 0 9.333-4.365 9.333-9.75 0-4.543-2.974-8.363-7-9.445 0.001-0.1029 0-0.2015 0-0.3047 0-10.77-8.357-19.5-18.67-19.5z"
     style="stroke-width:4;color:#000000;stroke:#ccc;enable-background:accumulate;display:none;fill:#fff"
     id="path283" />
  <path
     style="stroke-width:4;color:#000000;stroke:#ccc;enable-background:accumulate;display:none;fill:none"
     d="m288.9 828.1c-6.349 0-11.78 4.072-14.02 9.867-0.0496-0.00055-0.0978 0-0.1476 0-5.738 0-10.39 4.86-10.39 10.85 0 5.995 4.652 10.85 10.39 10.85h14.17 13.22c4.173 0 7.557-3.534 7.557-7.894 0-3.678-2.408-6.771-5.667-7.647 0.001-0.0833 0-0.1632 0-0.2467 0-8.719-6.766-15.79-15.11-15.79z"
     id="path285" />
  <g
     style="display:none"
     transform="translate(0 -558.4)"
     id="g297">
    <path
       d="m166.1 576.4h179.9c145.3 0 166.1 20.74 166.1 165.9v144.2c0 145.2-20.76 165.9-166.1 165.9h-179.9c-145.3 0-166.1-20-166.1-165.5v-144.2c0-145.2 20.76-165.9 166.1-165.9z"
       style="stroke:#00f;fill:#00f;display:inline;fill-opacity:.08118"
       id="path287" />
    <circle
       style="stroke-width:.8333;fill-opacity:.08118;color:#000000;stroke:#00f;enable-background:accumulate;display:inline;fill:#00f"
       cx="256"
       transform="matrix(1.2 0 0 1.2 -51.2 528.8)"
       cy="238"
       r="120"
       id="circle289" />
    <rect
       style="stroke-linejoin:round;fill-opacity:.08118;color:#000000;stroke:#00f;stroke-linecap:round;enable-background:accumulate;display:inline;fill:#00f"
       height="272"
       width="272"
       y="678.4"
       x="120"
       id="rect291" />
    <rect
       style="stroke-linejoin:round;fill-opacity:.08118;color:#000000;stroke:#00f;stroke-linecap:round;enable-background:accumulate;display:inline;fill:#00f"
       height="240"
       width="304"
       y="694.4"
       x="104"
       id="rect293" />
    <rect
       style="stroke-linejoin:round;fill-opacity:.08118;color:#000000;stroke:#00f;stroke-linecap:round;enable-background:accumulate;display:inline;fill:#00f"
       height="304"
       width="240"
       y="662.4"
       x="136"
       id="rect295" />
  </g>
  <g
     inkscape:groupmode="layer"
     id="layer2"
     inkscape:label="unten">
    <rect
       style="opacity:0.981;fill:#dd4814;fill-opacity:1;stroke-width:1.55878341;enable-background:new"
       id="rect5490"
       width="512"
       height="512"
       x="0"
       y="0" />
  </g>
  <g
     inkscape:groupmode="layer"
     id="layer1"
     inkscape:label="oben">
    <g
       style="fill:#cecac5;fill-opacity:0.94117647;enable-background:new"
       transform="matrix(0.61464468,0,0,0.61557234,-285.61504,317.09671)"
       id="XMLID_107_">
      <path
         inkscape:connector-curvature="0"
         id="XMLID_111_"
         d="M 721.64153,-268.20034 H 557.51699 c -15.32745,0 -27.75557,11.33614 -27.75557,25.32368 V 31.37686 c 0,13.98677 12.42812,25.32369 27.75557,25.32369 h 164.12454 c 15.33002,0 27.75898,-11.33615 27.75898,-25.32369 v -274.25352 c 0,-13.98754 -12.42896,-25.32368 -27.75898,-25.32368 z M 639.58097,42.38547 c -9.68916,0 -17.53585,-7.16143 -17.53585,-15.99321 0,-8.83178 7.84584,-15.9932 17.53585,-15.9932 9.67636,0 17.53329,7.16142 17.53329,15.9932 0,8.83178 -7.85693,15.99321 -17.53329,15.99321 z m 78.77398,-48.2013504 c 0,2.91281 -2.5948,5.28024001 -5.79609,5.28024001 H 566.60308 c -3.20214,0 -5.7978,-2.36743001 -5.7978,-5.28024001 V -235.9852 c 0,-2.91358 2.59566,-5.28023 5.7978,-5.28023 h 145.95493 c 3.20128,0 5.79608,2.36665 5.79608,5.28023 V -5.8158804 Z"
         style="fill:#cecac5;fill-opacity:0.94117647;stroke-width:0.81463087" />
      <g
         id="g4765"
         transform="matrix(1.005193,0,0,1.0285832,490.13941,-345.77171)">
        <path
           style="fill:#cecac5;fill-opacity:0.94117647"
           d="m 429.395,80.488 c -6.762,-6.763 -17.714,-6.763 -24.476,0 -6.765,6.762 -6.765,17.716 0,24.477 70.778,70.797 70.778,185.978 0,256.774 -6.765,6.762 -6.765,17.716 0,24.478 3.381,3.381 7.81,5.071 12.237,5.071 4.43,0 8.858,-1.69 12.238,-5.071 84.29,-84.286 84.29,-221.443 10e-4,-305.729 z"
           id="XMLID_110_"
           inkscape:connector-curvature="0" />
        <path
           style="fill:#cecac5;fill-opacity:0.94117647"
           d="m 378.917,130.981 c -6.761,-6.762 -17.714,-6.762 -24.476,0 -6.762,6.754 -6.762,17.718 0,24.479 42.936,42.946 42.936,112.839 0,155.786 -6.762,6.762 -6.762,17.725 0,24.478 3.381,3.381 7.809,5.071 12.239,5.071 4.428,0 8.856,-1.69 12.236,-5.071 56.448,-56.445 56.448,-148.296 10e-4,-204.743 z"
           id="XMLID_109_"
           inkscape:connector-curvature="0" />
        <path
           style="fill:#cecac5;fill-opacity:0.94117647"
           d="m 303.457,181.959 c -6.762,6.752 -6.762,17.716 0,24.477 14.824,14.843 14.824,38.99 0,53.832 -6.762,6.764 -6.762,17.726 0,24.479 3.381,3.381 7.809,5.07 12.238,5.07 4.428,0 8.857,-1.689 12.24,-5.07 28.33,-28.341 28.33,-74.449 0,-102.789 -6.764,-6.762 -17.716,-6.762 -24.478,0.001 z"
           id="XMLID_108_"
           inkscape:connector-curvature="0" />
      </g>
    </g>
    <g
       style="fill:#cecac5;fill-opacity:0.94117647;enable-background:new"
       transform="matrix(0.43154242,0,0,0.42678321,306.30128,152)"
       id="g5438">
      <path
         inkscape:connector-curvature="0"
         d="M 383.033,0 H 85.589 c -4.142,0 -7.5,3.358 -7.5,7.5 v 453.622 c 0,4.142 3.358,7.50109 7.5,7.5 l 297.83135,-0.0787 c 4.143,-10e-4 7.50354,-3.358 7.5,-7.5 L 390.533,7.5 C 390.529,3.3580016 387.176,0 383.033,0 Z M 358.47859,435.81846 H 110.53078 V 32.80354 h 247.94781 z"
         id="path5420"
         style="fill:#cecac5;fill-opacity:0.94117647"
         sodipodi:nodetypes="sssssssssccccc" />
      <path
         inkscape:connector-curvature="0"
         d="m 234.312,207.137 c -58.722,0 -106.495,47.773 -106.495,106.495 0,58.722 47.773,106.496 106.495,106.496 58.722,0 106.495,-47.774 106.495,-106.496 0,-58.722 -47.774,-106.495 -106.495,-106.495 z m 0,197.99 c -50.451,0 -91.495,-41.045 -91.495,-91.496 0,-50.451 41.044,-91.495 91.495,-91.495 50.45,0 91.495,41.044 91.495,91.495 0,50.451 -41.045,91.496 -91.495,91.496 z"
         id="path5424"
         style="fill:#cecac5;fill-opacity:0.94117647" />
      <path
         inkscape:connector-curvature="0"
         d="m 197.567,179.837 c 35.153,0 63.752,-28.599 63.752,-63.751 0,-35.152 -28.599,-63.751 -63.752,-63.751 -35.152,0 -63.751,28.599 -63.751,63.751 0,35.153 28.599,63.751 63.751,63.751 z m 0,-112.502 c 26.882,0 48.752,21.87 48.752,48.751 0,26.882 -21.87,48.751 -48.752,48.751 -26.881,0 -48.751,-21.87 -48.751,-48.751 0,-26.881 21.87,-48.751 48.751,-48.751 z"
         id="path5426"
         style="fill:#cecac5;fill-opacity:0.94117647" />
      <path
         inkscape:connector-curvature="0"
         d="m 295.958,210.784 c 22.291,0 40.427,-18.135 40.427,-40.426 0,-22.292 -18.136,-40.427 -40.427,-40.427 -22.291,0 -40.426,18.135 -40.426,40.427 0,22.291 18.135,40.426 40.426,40.426 z m 0,-65.853 c 14.021,0 25.427,11.406 25.427,25.427 0,14.02 -11.406,25.426 -25.427,25.426 -14.02,0 -25.426,-11.406 -25.426,-25.426 0,-14.021 11.406,-25.427 25.426,-25.427 z"
         id="path5428"
         style="fill:#cecac5;fill-opacity:0.94117647" />
      <path
         inkscape:connector-curvature="0"
         d="m 234.312,278.767 c -19.225,0 -34.866,15.641 -34.866,34.865 0,19.225 15.641,34.866 34.866,34.866 19.225,0 34.865,-15.641 34.865,-34.866 0,-19.225 -15.641,-34.865 -34.865,-34.865 z m 0,54.731 c -10.954,0 -19.866,-8.912 -19.866,-19.866 0,-10.954 8.912,-19.865 19.866,-19.865 10.954,0 19.865,8.912 19.865,19.865 0,10.954 -8.911,19.866 -19.865,19.866 z"
         id="path5430"
         style="fill:#cecac5;fill-opacity:0.94117647" />
      <path
         inkscape:connector-curvature="0"
         d="m 234.312,230.633 c -45.766,0 -82.999,37.233 -82.999,82.999 0,45.766 37.233,83 82.999,83 45.766,0 82.999,-37.233 82.999,-83 0,-45.766 -37.234,-82.999 -82.999,-82.999 z m 0,150.998 c -37.495,0 -67.999,-30.504 -67.999,-68 0,-37.495 30.504,-67.999 67.999,-67.999 37.495,0 67.999,30.504 67.999,67.999 0,37.496 -30.504,68 -67.999,68 z"
         id="path5432"
         style="fill:#cecac5;fill-opacity:0.94117647" />
      <path
         inkscape:connector-curvature="0"
         d="m 197.567,137.116 c 11.596,0 21.03,-9.434 21.03,-21.03 0,-11.596 -9.434,-21.029 -21.03,-21.029 -11.596,0 -21.029,9.434 -21.029,21.029 0,11.595 9.434,21.03 21.029,21.03 z m 0,-27.059 c 3.325,0 6.03,2.705 6.03,6.029 0,3.324 -2.705,6.03 -6.03,6.03 -3.325,0 -6.029,-2.705 -6.029,-6.03 0,-3.325 2.705,-6.029 6.029,-6.029 z"
         id="path5434"
         style="fill:#cecac5;fill-opacity:0.94117647" />
      <path
         inkscape:connector-curvature="0"
         d="m 295.954,177.86 c 1.98,0 3.91,-0.8 5.311,-2.2 1.39,-1.4 2.189,-3.33 2.189,-5.3 0,-1.98 -0.8,-3.91 -2.189,-5.31 -1.4,-1.39 -3.33,-2.19 -5.311,-2.19 -1.97,0 -3.899,0.8 -5.3,2.19 -1.4,1.4 -2.2,3.33 -2.2,5.31 0,1.97 0.8,3.9 2.2,5.3 1.401,1.4 3.33,2.2 5.3,2.2 z"
         id="path5436"
         style="fill:#cecac5;fill-opacity:0.94117647" />
    </g>
    <rect
       style="opacity:0.34900004;fill:#cec2ba;fill-opacity:1;stroke-width:0.84133464"
       id="rect5508"
       width="512"
       height="256"
       x="0"
       y="0" />
  </g>
</svg>
